{
    "blog":[
        {"title": "Hello World", "author": "dojo", "body":"Lorem blog body 1", "id": "1"},
        {"title": "Hello World 2", "author": "dojo", "body":"Lorem blog body 2", "id": "2"},
        {"title": "Hello World 3", "author": "dojo", "body":"Lorem blog body 3", "id": "3"},
        {"title": "Hello World 4", "author": "dojo", "body":"Lorem blog body 4", "id": "4"}
    ]
}